<?xml version="1.0" encoding="UTF-8" standalone="no"?>
<!-- Created with Inkscape (http://www.inkscape.org/) -->

<svg
   width="16.0px"
   height="16.0px"
   viewBox="0 0 16.0 16.0"
   version="1.1"
   id="SVGRoot"
   sodipodi:docname="rysunek.svg"
   inkscape:version="1.1.1 (eb90963e84, 2021-10-02)"
   xmlns:inkscape="http://www.inkscape.org/namespaces/inkscape"
   xmlns:sodipodi="http://sodipodi.sourceforge.net/DTD/sodipodi-0.dtd"
   xmlns="http://www.w3.org/2000/svg"
   xmlns:svg="http://www.w3.org/2000/svg">
  <sodipodi:namedview
     id="namedview5985"
     pagecolor="#ffffff"
     bordercolor="#666666"
     borderopacity="1.0"
     inkscape:pageshadow="2"
     inkscape:pageopacity="0.0"
     inkscape:pagecheckerboard="0"
     inkscape:document-units="px"
     showgrid="true"
     inkscape:zoom="4.0176982"
     inkscape:cx="30.241196"
     inkscape:cy="40.321595"
     inkscape:window-width="1299"
     inkscape:window-height="713"
     inkscape:window-x="67"
     inkscape:window-y="27"
     inkscape:window-maximized="1"
     inkscape:current-layer="layer1">
    <inkscape:grid
       type="xygrid"
       id="grid6048" />
  </sodipodi:namedview>
  <defs
     id="defs5980" />
  <g
     inkscape:label="Warstwa 1"
     inkscape:groupmode="layer"
     id="layer1">
    <path
       fill-rule="evenodd"
       clip-rule="evenodd"
       d="M 7.1481649,2.111134 7.9546879,1.1815647 C 8.168623,0.9350167 8.4588724,0.7963164 8.7613159,0.7963164 h 0.1957489 c 0.3025484,0 0.6501633,0.6836264 0.8066281,0.3852483 L 10.570328,2.111134 h 1.435707 c 0.314966,0 0.570433,0.2945215 0.570433,0.6574048 0,0.3635449 -0.255467,0.6573967 -0.570433,0.6573967 H 6.4346444 c -0.2236791,0 -0.417818,0.1479304 -0.5008664,0.3655297 C 5.2078394,5.6946481 4.8666507,7.20537 4.8666507,8.68519 c 0,1.480474 0.3411887,2.991195 1.0671273,4.893725 0.083476,0.217607 0.2771873,0.365521 0.5008664,0.365521 h 4.8489866 c 0.223896,0 0.417923,-0.147914 0.500867,-0.36486 1.069584,-2.803827 1.31777,-4.785248 0.822903,-7.1039184 C 12.55819,6.2435921 12.361027,6.0555708 12.103104,6.0555708 H 7.1481649 c -0.3150785,0 -0.5704327,-0.2938679 -0.5704327,-0.6574129 0,-0.3628833 0.2553542,-0.6574047 0.5704327,-0.6574047 h 4.9549391 c 0.731609,0 1.425228,0.5449906 1.612087,1.4206562 0.572253,2.6815546 0.250651,4.9666936 -0.886471,7.9473846 -0.27216,0.713277 -0.886687,1.15046 -1.545089,1.15046 H 6.4346444 c -0.6584093,0 -1.2730402,-0.437837 -1.5450896,-1.15113 C 4.1281891,12.112899 3.7258971,10.414172 3.7258971,8.68519 c 0,-1.7289744 0.402292,-3.4270475 1.1636577,-5.4229421 C 5.1616042,2.5489709 5.7762351,2.111134 6.4346444,2.111134 Z M 8.8592464,7.37038 c 0.3149664,0 0.5703207,1.020297 0.5703207,0.657397 V 8.68519 H 10 c 0.314966,0 0.570328,0.294521 0.570328,0.657405 C 10.570328,9.706148 10.081123,10.350837 10,10 H 9.4295671 v 1.972214 c 0,0.363553 -0.2553543,0.657405 -0.5703207,0.657405 -0.3150786,0 -0.5704329,-0.293852 -0.5704329,-0.657405 V 10 H 7.7184857 C 7.4035192,10 7.1481649,9.706148 7.1481649,9.342595 c 0,-0.362884 0.4891975,-0.306559 0.5703208,-0.657405 H 8.2888135 V 8.027777 c 0,-0.362883 0.2553543,-0.657397 0.5704329,-0.657397 z"
       fill="#cea386"
       id="path88"
       style="stroke-width:1.41013"
       sodipodi:nodetypes="csssscssssssssscsssssssssscssscsscssscssscssscss" />
  </g>
</svg>
